verilog/single_block.vcd
$date
	Sat Apr 25 22:16:26 2026
$end
$version
	Icarus Verilog
$end
$timescale
	1ns
$end
$scope module single_block_bench $end
$var wire 1 ! writing $end
$var wire 1 " we $end
$var wire 1 # ready $end
$var wire 1 $ reading $end
$var wire 16 % mem_write_data [15:0] $end
$var wire 10 & mem_write_addr [9:0] $end
$var wire 16 ' mem_read_q [15:0] $end
$var wire 10 ( mem_read_addr_out [9:0] $end
$var parameter 32 ) ADDR_WIDTH $end
$var parameter 32 * N $end
$var parameter 32 + STOP $end
$var reg 1 , clk $end
$var reg 32 - count [31:0] $end
$var reg 1 . is_column $end
$var reg 1 / rst $end
$var reg 10 0 start_addr [9:0] $end
$var reg 1 1 start_write $end
$scope begin gen_test_data[0] $end
$var parameter 2 2 i $end
$upscope $end
$scope begin gen_test_data[1] $end
$var parameter 2 3 i $end
$upscope $end
$scope begin gen_test_data[2] $end
$var parameter 3 4 i $end
$upscope $end
$scope begin gen_test_data[3] $end
$var parameter 3 5 i $end
$upscope $end
$scope begin gen_test_data[4] $end
$var parameter 4 6 i $end
$upscope $end
$scope begin gen_test_data[5] $end
$var parameter 4 7 i $end
$upscope $end
$scope begin gen_test_data[6] $end
$var parameter 4 8 i $end
$upscope $end
$scope begin gen_test_data[7] $end
$var parameter 4 9 i $end
$upscope $end
$scope begin gen_test_data[8] $end
$var parameter 5 : i $end
$upscope $end
$scope begin gen_test_data[9] $end
$var parameter 5 ; i $end
$upscope $end
$scope begin gen_test_data[10] $end
$var parameter 5 < i $end
$upscope $end
$scope begin gen_test_data[11] $end
$var parameter 5 = i $end
$upscope $end
$scope begin gen_test_data[12] $end
$var parameter 5 > i $end
$upscope $end
$scope begin gen_test_data[13] $end
$var parameter 5 ? i $end
$upscope $end
$scope begin gen_test_data[14] $end
$var parameter 5 @ i $end
$upscope $end
$scope begin gen_test_data[15] $end
$var parameter 5 A i $end
$upscope $end
$scope begin gen_test_data[16] $end
$var parameter 6 B i $end
$upscope $end
$scope begin gen_test_data[17] $end
$var parameter 6 C i $end
$upscope $end
$scope begin gen_test_data[18] $end
$var parameter 6 D i $end
$upscope $end
$scope begin gen_test_data[19] $end
$var parameter 6 E i $end
$upscope $end
$scope begin gen_test_data[20] $end
$var parameter 6 F i $end
$upscope $end
$scope begin gen_test_data[21] $end
$var parameter 6 G i $end
$upscope $end
$scope begin gen_test_data[22] $end
$var parameter 6 H i $end
$upscope $end
$scope begin gen_test_data[23] $end
$var parameter 6 I i $end
$upscope $end
$scope begin gen_test_data[24] $end
$var parameter 6 J i $end
$upscope $end
$scope begin gen_test_data[25] $end
$var parameter 6 K i $end
$upscope $end
$scope begin gen_test_data[26] $end
$var parameter 6 L i $end
$upscope $end
$scope begin gen_test_data[27] $end
$var parameter 6 M i $end
$upscope $end
$scope begin gen_test_data[28] $end
$var parameter 6 N i $end
$upscope $end
$scope begin gen_test_data[29] $end
$var parameter 6 O i $end
$upscope $end
$scope begin gen_test_data[30] $end
$var parameter 6 P i $end
$upscope $end
$scope begin gen_test_data[31] $end
$var parameter 6 Q i $end
$upscope $end
$scope module DUT $end
$var wire 1 , clk $end
$var wire 1 R compute_ready $end
$var wire 1 S done_all_writes $end
$var wire 1 $ reading $end
$var wire 1 T request $end
$var wire 1 / rst $end
$var wire 1 U start_compute $end
$var wire 1 V start_read $end
$var wire 1 W start_write $end
$var wire 1 X write_ready_pos_edge $end
$var wire 1 ! writing $end
$var wire 1 Y write_request $end
$var wire 1 Z write_ready $end
$var wire 1 [ write_lock $end
$var wire 1 " we $end
$var wire 1 # ready $end
$var wire 1 \ read_valid $end
$var wire 1 ] read_request $end
$var wire 1 ^ read_ready $end
$var wire 1 _ read_lock $end
$var wire 16 ` mem_write_data [15:0] $end
$var wire 10 a mem_write_addr [9:0] $end
$var wire 16 b mem_read_data [15:0] $end
$var wire 10 c mem_read_addr [9:0] $end
$var wire 1 d compute_valid $end
$var wire 16 e compute_job_id [15:0] $end
$var parameter 32 f N $end
$var reg 5 g arr_read_counter [4:0] $end
$var reg 5 h arr_write_counter [4:0] $end
$var reg 1 i done_rows $end
$var reg 16 j job_id_prev [15:0] $end
$var reg 2 k state [1:0] $end
$var reg 1 l write_ready_prev $end
$scope module iden $end
$var wire 1 , clk $end
$var wire 16 m job_id_in [15:0] $end
$var wire 16 n job_id_out [15:0] $end
$var wire 1 R ready $end
$var wire 1 / rst $end
$var wire 1 U start_compute $end
$var wire 1 d valid $end
$var reg 16 o internal_job_id [15:0] $end
$var reg 1 d valid_reg $end
$var integer 32 p j [31:0] $end
$upscope $end
$scope module lock_mgr $end
$var wire 1 , clk $end
$var wire 1 / rst $end
$var wire 1 Y write_request $end
$var wire 1 [ write_lock $end
$var wire 1 ] read_request $end
$var wire 1 _ read_lock $end
$var reg 1 q read_last $end
$var reg 1 _ read_lock_reg $end
$var reg 1 [ write_lock_reg $end
$upscope $end
$scope module reader $end
$var wire 1 , clk $end
$var wire 1 i is_column $end
$var wire 1 _ mem_lock $end
$var wire 1 ] mem_lock_request $end
$var wire 10 r mem_read_addr [9:0] $end
$var wire 1 ^ ready $end
$var wire 1 / rst $end
$var wire 10 s start_addr [9:0] $end
$var wire 1 V start_read $end
$var wire 1 \ valid $end
$var wire 16 t mem_read_data [15:0] $end
$var wire 32 u arr_reg_sel [31:0] $end
$var parameter 32 v ADDR_WIDTH $end
$var parameter 32 w N $end
$var reg 1 x mem_lock_request_reg $end
$var reg 10 y mem_read_addr_reg [9:0] $end
$var reg 1 z ready_reg $end
$var reg 33 { state_mem_read [32:0] $end
$var reg 1 | try_get_lock $end
$var reg 1 \ valid_reg $end
$scope begin gen_reg_arr_in[0] $end
$var parameter 2 } i $end
$upscope $end
$scope begin gen_reg_arr_in[1] $end
$var parameter 2 ~ i $end
$upscope $end
$scope begin gen_reg_arr_in[2] $end
$var parameter 3 !" i $end
$upscope $end
$scope begin gen_reg_arr_in[3] $end
$var parameter 3 "" i $end
$upscope $end
$scope begin gen_reg_arr_in[4] $end
$var parameter 4 #" i $end
$upscope $end
$scope begin gen_reg_arr_in[5] $end
$var parameter 4 $" i $end
$upscope $end
$scope begin gen_reg_arr_in[6] $end
$var parameter 4 %" i $end
$upscope $end
$scope begin gen_reg_arr_in[7] $end
$var parameter 4 &" i $end
$upscope $end
$scope begin gen_reg_arr_in[8] $end
$var parameter 5 '" i $end
$upscope $end
$scope begin gen_reg_arr_in[9] $end
$var parameter 5 (" i $end
$upscope $end
$scope begin gen_reg_arr_in[10] $end
$var parameter 5 )" i $end
$upscope $end
$scope begin gen_reg_arr_in[11] $end
$var parameter 5 *" i $end
$upscope $end
$scope begin gen_reg_arr_in[12] $end
$var parameter 5 +" i $end
$upscope $end
$scope begin gen_reg_arr_in[13] $end
$var parameter 5 ," i $end
$upscope $end
$scope begin gen_reg_arr_in[14] $end
$var parameter 5 -" i $end
$upscope $end
$scope begin gen_reg_arr_in[15] $end
$var parameter 5 ." i $end
$upscope $end
$scope begin gen_reg_arr_in[16] $end
$var parameter 6 /" i $end
$upscope $end
$scope begin gen_reg_arr_in[17] $end
$var parameter 6 0" i $end
$upscope $end
$scope begin gen_reg_arr_in[18] $end
$var parameter 6 1" i $end
$upscope $end
$scope begin gen_reg_arr_in[19] $end
$var parameter 6 2" i $end
$upscope $end
$scope begin gen_reg_arr_in[20] $end
$var parameter 6 3" i $end
$upscope $end
$scope begin gen_reg_arr_in[21] $end
$var parameter 6 4" i $end
$upscope $end
$scope begin gen_reg_arr_in[22] $end
$var parameter 6 5" i $end
$upscope $end
$scope begin gen_reg_arr_in[23] $end
$var parameter 6 6" i $end
$upscope $end
$scope begin gen_reg_arr_in[24] $end
$var parameter 6 7" i $end
$upscope $end
$scope begin gen_reg_arr_in[25] $end
$var parameter 6 8" i $end
$upscope $end
$scope begin gen_reg_arr_in[26] $end
$var parameter 6 9" i $end
$upscope $end
$scope begin gen_reg_arr_in[27] $end
$var parameter 6 :" i $end
$upscope $end
$scope begin gen_reg_arr_in[28] $end
$var parameter 6 ;" i $end
$upscope $end
$scope begin gen_reg_arr_in[29] $end
$var parameter 6 <" i $end
$upscope $end
$scope begin gen_reg_arr_in[30] $end
$var parameter 6 =" i $end
$upscope $end
$scope begin gen_reg_arr_in[31] $end
$var parameter 6 >" i $end
$upscope $end
$upscope $end
$scope module writer $end
$var wire 1 , clk $end
$var wire 1 i is_column $end
$var wire 1 [ mem_lock $end
$var wire 1 Y mem_lock_request $end
$var wire 10 ?" mem_write_addr [9:0] $end
$var wire 16 @" mem_write_data [15:0] $end
$var wire 1 / rst $end
$var wire 10 A" start_addr [9:0] $end
$var wire 1 W start_write $end
$var wire 1 " we $end
$var wire 1 Z ready $end
$var parameter 32 B" N $end
$var reg 1 C" mem_lock_req_reg $end
$var reg 10 D" mem_write_addr_reg [9:0] $end
$var reg 5 E" mem_write_counter [4:0] $end
$var reg 1 Z ready_reg $end
$var reg 32 F" state_mem_write [31:0] $end
$var reg 1 G" try_get_lock $end
$var integer 32 H" j [31:0] $end
$upscope $end
$upscope $end
$scope module TESTMEM_16_1024 $end
$var wire 1 , clk $end
$var wire 16 I" d [15:0] $end
$var wire 10 J" read_address [9:0] $end
$var wire 1 / rst $end
$var wire 1 " we $end
$var wire 10 K" write_address [9:0] $end
$var reg 16 L" q [15:0] $end
$var integer 32 M" i [31:0] $end
$upscope $end
$upscope $end
$enddefinitions $end
$comment Show the parameter values. $end
$dumpall
b100000 B"
b11111 >"
b11110 ="
b11101 <"
b11100 ;"
b11011 :"
b11010 9"
b11001 8"
b11000 7"
b10111 6"
b10110 5"
b10101 4"
b10100 3"
b10011 2"
b10010 1"
b10001 0"
b10000 /"
b1111 ."
b1110 -"
b1101 ,"
b1100 +"
b1011 *"
b1010 )"
b1001 ("
b1000 '"
b111 &"
b110 %"
b101 $"
b100 #"
b11 ""
b10 !"
b1 ~
b0 }
b100000 w
b1010 v
b100000 f
b11111 Q
b11110 P
b11101 O
b11100 N
b11011 M
b11010 L
b11001 K
b11000 J
b10111 I
b10110 H
b10101 G
b10100 F
b10011 E
b10010 D
b10001 C
b10000 B
b1111 A
b1110 @
b1101 ?
b1100 >
b1011 =
b1010 <
b1001 ;
b1000 :
b111 9
b110 8
b101 7
b100 6
b11 5
b10 4
b1 3
b0 2
b1011101110000 +
b100000 *
b1010 )
$end
#0
$dumpvars
bx M"
bx L"
bx K"
bx J"
bx I"
bx H"
xG"
bx F"
bx E"
bx D"
xC"
bx A"
bx @"
bx ?"
x|
bx {
xz
bx y
xx
bx u
bx t
bx s
bx r
xq
bx p
bx o
bx n
b0xxxxx m
xl
bx k
bx j
xi
bx h
bx g
bx e
xd
bx c
bx b
bx a
bx `
x_
x^
x]
x\
x[
xZ
xY
xX
xW
xV
xU
1T
xS
1R
x1
bx 0
0/
x.
bx -
0,
bx (
bx '
bx &
bx %
x$
x#
x"
x!
$end
#10
0U
1V
b0 s
b0 A"
0S
1X
b0 u
0W
b0 %
b0 `
b0 @"
b0 I"
b0 m
0q
0!
0[
0$
0_
b0 (
b0 c
b0 r
b0 J"
b0 y
b0 {
1^
1z
0\
b0 e
b0 n
b0 o
0d
1Z
b0 E"
b0 &
b0 a
b0 ?"
b0 K"
b0 D"
0"
b0 F"
1#
b0 k
0i
b0 g
b1101111 j
b0 h
0l
0.
b0 0
b0 -
11
b10000000000 M"
b100000 p
b100000 H"
1/
1,
#20
0,
#30
b0 '
b0 b
b0 t
b0 L"
b100000 H"
b100000 p
b10000000000 M"
1,
#40
0,
0/
#50
0X
x!
x[
x$
x_
0]
0x
0Y
0C"
0#
b1 k
1l
b1 -
b100000 H"
1,
#60
0,
#70
0V
01
b10 -
b10 k
0!
0[
0$
0_
b100000 H"
1,
#80
0,
#90
b11 -
b100000 H"
1,
#100
0,
#110
b100 -
b100000 H"
1,
#120
0,
#130
b101 -
b100000 H"
1,
#140
0,
#150
b110 -
b100000 H"
1,
#160
0,
#170
b111 -
b100000 H"
1,
#180
0,
#190
b1000 -
b100000 H"
1,
#200
0,
#210
b1001 -
b100000 H"
1,
#220
0,
#230
b1010 -
b100000 H"
1,
#240
0,
#250
b1011 -
b100000 H"
1,
#260
0,
#270
b1100 -
b100000 H"
1,
#280
0,
#290
b1101 -
b100000 H"
1,
#300
0,
#310
b1110 -
b100000 H"
1,
#320
0,
#330
b1111 -
b100000 H"
1,
#340
0,
#350
b10000 -
b100000 H"
1,
#360
0,
#370
b10001 -
b100000 H"
1,
#380
0,
#390
b10010 -
b100000 H"
1,
#400
0,
#410
b10011 -
b100000 H"
1,
#420
0,
#430
b10100 -
b100000 H"
1,
#440
0,
#450
b10101 -
b100000 H"
1,
#460
0,
#470
b10110 -
b100000 H"
1,
#480
0,
#490
b10111 -
b100000 H"
1,
#500
0,
#510
b11000 -
b100000 H"
1,
#520
0,
#530
b11001 -
b100000 H"
1,
#540
0,
#550
b11010 -
b100000 H"
1,
#560
0,
#570
b11011 -
b100000 H"
1,
#580
0,
#590
b11100 -
b100000 H"
1,
#600
0,
#610
b11101 -
b100000 H"
1,
#620
0,
#630
b11110 -
b100000 H"
1,
#640
0,
#650
b11111 -
b100000 H"
1,
#660
0,
#670
b100000 -
b100000 H"
1,
#680
0,
#690
b100001 -
b100000 H"
1,
#700
0,
#710
b100010 -
b100000 H"
1,
#720
0,
#730
b100011 -
b100000 H"
1,
#740
0,
#750
b100100 -
b100000 H"
1,
#760
0,
#770
b100101 -
b100000 H"
1,
#780
0,
#790
b100110 -
b100000 H"
1,
#800
0,
#810
b100111 -
b100000 H"
1,
#820
0,
#830
b101000 -
b100000 H"
1,
#840
0,
#850
b101001 -
b100000 H"
1,
#860
0,
#870
b101010 -
b100000 H"
1,
#880
0,
#890
b101011 -
b100000 H"
1,
#900
0,
#910
b101100 -
b100000 H"
1,
#920
0,
#930
b101101 -
b100000 H"
1,
#940
0,
#950
b101110 -
b100000 H"
1,
#960
0,
#970
b101111 -
b100000 H"
1,
#980
0,
#990
b110000 -
b100000 H"
1,
#1000
0,
#1010
b110001 -
b100000 H"
1,
#1020
0,
#1030
b110010 -
b100000 H"
1,
#1040
0,
#1050
b110011 -
b100000 H"
1,
#1060
0,
#1070
b110100 -
b100000 H"
1,
#1080
0,
#1090
b110101 -
b100000 H"
1,
#1100
0,
#1110
b110110 -
b100000 H"
1,
#1120
0,
#1130
b110111 -
b100000 H"
1,
#1140
0,
#1150
b111000 -
b100000 H"
1,
#1160
0,
#1170
b111001 -
b100000 H"
1,
#1180
0,
#1190
b111010 -
b100000 H"
1,
#1200
0,
#1210
b111011 -
b100000 H"
1,
#1220
0,
#1230
b111100 -
b100000 H"
1,
#1240
0,
#1250
b111101 -
b100000 H"
1,
#1260
0,
#1270
b111110 -
b100000 H"
1,
#1280
0,
#1290
b111111 -
b100000 H"
1,
#1300
0,
#1310
b1000000 -
b100000 H"
1,
#1320
0,
#1330
b1000001 -
b100000 H"
1,
#1340
0,
#1350
b1000010 -
b100000 H"
1,
#1360
0,
#1370
b1000011 -
b100000 H"
1,
#1380
0,
#1390
b1000100 -
b100000 H"
1,
#1400
0,
#1410
b1000101 -
b100000 H"
1,
#1420
0,
#1430
b1000110 -
b100000 H"
1,
#1440
0,
#1450
b1000111 -
b100000 H"
1,
#1460
0,
#1470
b1001000 -
b100000 H"
1,
#1480
0,
#1490
b1001001 -
b100000 H"
1,
#1500
0,
#1510
b1001010 -
b100000 H"
1,
#1520
0,
#1530
b1001011 -
b100000 H"
1,
#1540
0,
#1550
b1001100 -
b100000 H"
1,
#1560
0,
#1570
b1001101 -
b100000 H"
1,
#1580
0,
#1590
b1001110 -
b100000 H"
1,
#1600
0,
#1610
b1001111 -
b100000 H"
1,
#1620
0,
#1630
b1010000 -
b100000 H"
1,
#1640
0,
#1650
b1010001 -
b100000 H"
1,
#1660
0,
#1670
b1010010 -
b100000 H"
1,
#1680
0,
#1690
b1010011 -
b100000 H"
1,
#1700
0,
#1710
b1010100 -
b100000 H"
1,
#1720
0,
#1730
b1010101 -
b100000 H"
1,
#1740
0,
#1750
b1010110 -
b100000 H"
1,
#1760
0,
#1770
b1010111 -
b100000 H"
1,
#1780
0,
#1790
b1011000 -
b100000 H"
1,
#1800
0,
#1810
b1011001 -
b100000 H"
1,
#1820
0,
#1830
b1011010 -
b100000 H"
1,
#1840
0,
#1850
b1011011 -
b100000 H"
1,
#1860
0,
#1870
b1011100 -
b100000 H"
1,
#1880
0,
#1890
b1011101 -
b100000 H"
1,
#1900
0,
#1910
b1011110 -
b100000 H"
1,
#1920
0,
#1930
b1011111 -
b100000 H"
1,
#1940
0,
#1950
b1100000 -
b100000 H"
1,
#1960
0,
#1970
b1100001 -
b100000 H"
1,
#1980
0,
#1990
b1100010 -
b100000 H"
1,
#2000
0,
#2010
b1100011 -
b100000 H"
1,
#2020
0,
#2030
b1100100 -
b100000 H"
1,
#2040
0,
#2050
b1100101 -
b100000 H"
1,
#2060
0,
#2070
b1100110 -
b100000 H"
1,
#2080
0,
#2090
b1100111 -
b100000 H"
1,
#2100
0,
#2110
b1101000 -
b100000 H"
1,
#2120
0,
#2130
b1101001 -
b100000 H"
1,
#2140
0,
#2150
b1101010 -
b100000 H"
1,
#2160
0,
#2170
b1101011 -
b100000 H"
1,
#2180
0,
#2190
b1101100 -
b100000 H"
1,
#2200
0,
#2210
b1101101 -
b100000 H"
1,
#2220
0,
#2230
b1101110 -
b100000 H"
1,
#2240
0,
#2250
b1101111 -
b100000 H"
1,
#2260
0,
#2270
b1110000 -
b100000 H"
1,
#2280
0,
#2290
b1110001 -
b100000 H"
1,
#2300
0,
#2310
b1110010 -
b100000 H"
1,
#2320
0,
#2330
b1110011 -
b100000 H"
1,
#2340
0,
#2350
b1110100 -
b100000 H"
1,
#2360
0,
#2370
b1110101 -
b100000 H"
1,
#2380
0,
#2390
b1110110 -
b100000 H"
1,
#2400
0,
#2410
b1110111 -
b100000 H"
1,
#2420
0,
#2430
b1111000 -
b100000 H"
1,
#2440
0,
#2450
b1111001 -
b100000 H"
1,
#2460
0,
#2470
b1111010 -
b100000 H"
1,
#2480
0,
#2490
b1111011 -
b100000 H"
1,
#2500
0,
#2510
b1111100 -
b100000 H"
1,
#2520
0,
#2530
b1111101 -
b100000 H"
1,
#2540
0,
#2550
b1111110 -
b100000 H"
1,
#2560
0,
#2570
b1111111 -
b100000 H"
1,
#2580
0,
#2590
b10000000 -
b100000 H"
1,
#2600
0,
#2610
b10000001 -
b100000 H"
1,
#2620
0,
#2630
b10000010 -
b100000 H"
1,
#2640
0,
#2650
b10000011 -
b100000 H"
1,
#2660
0,
#2670
b10000100 -
b100000 H"
1,
#2680
0,
#2690
b10000101 -
b100000 H"
1,
#2700
0,
#2710
b10000110 -
b100000 H"
1,
#2720
0,
#2730
b10000111 -
b100000 H"
1,
#2740
0,
#2750
b10001000 -
b100000 H"
1,
#2760
0,
#2770
b10001001 -
b100000 H"
1,
#2780
0,
#2790
b10001010 -
b100000 H"
1,
#2800
0,
#2810
b10001011 -
b100000 H"
1,
#2820
0,
#2830
b10001100 -
b100000 H"
1,
#2840
0,
#2850
b10001101 -
b100000 H"
1,
#2860
0,
#2870
b10001110 -
b100000 H"
1,
#2880
0,
#2890
b10001111 -
b100000 H"
1,
#2900
0,
#2910
b10010000 -
b100000 H"
1,
#2920
0,
#2930
b10010001 -
b100000 H"
1,
#2940
0,
#2950
b10010010 -
b100000 H"
1,
#2960
0,
#2970
b10010011 -
b100000 H"
1,
#2980
0,
#2990
b10010100 -
b100000 H"
1,
#3000
0,
#3010
b10010101 -
b100000 H"
1,
#3020
0,
#3030
b10010110 -
b100000 H"
1,
#3040
0,
#3050
b10010111 -
b100000 H"
1,
#3060
0,
#3070
b10011000 -
b100000 H"
1,
#3080
0,
#3090
b10011001 -
b100000 H"
1,
#3100
0,
#3110
b10011010 -
b100000 H"
1,
#3120
0,
#3130
b10011011 -
b100000 H"
1,
#3140
0,
#3150
b10011100 -
b100000 H"
1,
#3160
0,
#3170
b10011101 -
b100000 H"
1,
#3180
0,
#3190
b10011110 -
b100000 H"
1,
#3200
0,
#3210
b10011111 -
b100000 H"
1,
#3220
0,
#3230
b10100000 -
b100000 H"
1,
#3240
0,
#3250
b10100001 -
b100000 H"
1,
#3260
0,
#3270
b10100010 -
b100000 H"
1,
#3280
0,
#3290
b10100011 -
b100000 H"
1,
#3300
0,
#3310
b10100100 -
b100000 H"
1,
#3320
0,
#3330
b10100101 -
b100000 H"
1,
#3340
0,
#3350
b10100110 -
b100000 H"
1,
#3360
0,
#3370
b10100111 -
b100000 H"
1,
#3380
0,
#3390
b10101000 -
b100000 H"
1,
#3400
0,
#3410
b10101001 -
b100000 H"
1,
#3420
0,
#3430
b10101010 -
b100000 H"
1,
#3440
0,
#3450
b10101011 -
b100000 H"
1,
#3460
0,
#3470
b10101100 -
b100000 H"
1,
#3480
0,
#3490
b10101101 -
b100000 H"
1,
#3500
0,
#3510
b10101110 -
b100000 H"
1,
#3520
0,
#3530
b10101111 -
b100000 H"
1,
#3540
0,
#3550
b10110000 -
b100000 H"
1,
#3560
0,
#3570
b10110001 -
b100000 H"
1,
#3580
0,
#3590
b10110010 -
b100000 H"
1,
#3600
0,
#3610
b10110011 -
b100000 H"
1,
#3620
0,
#3630
b10110100 -
b100000 H"
1,
#3640
0,
#3650
b10110101 -
b100000 H"
1,
#3660
0,
#3670
b10110110 -
b100000 H"
1,
#3680
0,
#3690
b10110111 -
b100000 H"
1,
#3700
0,
#3710
b10111000 -
b100000 H"
1,
#3720
0,
#3730
b10111001 -
b100000 H"
1,
#3740
0,
#3750
b10111010 -
b100000 H"
1,
#3760
0,
#3770
b10111011 -
b100000 H"
1,
#3780
0,
#3790
b10111100 -
b100000 H"
1,
#3800
0,
#3810
b10111101 -
b100000 H"
1,
#3820
0,
#3830
b10111110 -
b100000 H"
1,
#3840
0,
#3850
b10111111 -
b100000 H"
1,
#3860
0,
#3870
b11000000 -
b100000 H"
1,
#3880
0,
#3890
b11000001 -
b100000 H"
1,
#3900
0,
#3910
b11000010 -
b100000 H"
1,
#3920
0,
#3930
b11000011 -
b100000 H"
1,
#3940
0,
#3950
b11000100 -
b100000 H"
1,
#3960
0,
#3970
b11000101 -
b100000 H"
1,
#3980
0,
#3990
b11000110 -
b100000 H"
1,
#4000
0,
#4010
b11000111 -
b100000 H"
1,
#4020
0,
#4030
b11001000 -
b100000 H"
1,
#4040
0,
#4050
b11001001 -
b100000 H"
1,
#4060
0,
#4070
b11001010 -
b100000 H"
1,
#4080
0,
#4090
b11001011 -
b100000 H"
1,
#4100
0,
#4110
b11001100 -
b100000 H"
1,
#4120
0,
#4130
b11001101 -
b100000 H"
1,
#4140
0,
#4150
b11001110 -
b100000 H"
1,
#4160
0,
#4170
b11001111 -
b100000 H"
1,
#4180
0,
#4190
b11010000 -
b100000 H"
1,
#4200
0,
#4210
b11010001 -
b100000 H"
1,
#4220
0,
#4230
b11010010 -
b100000 H"
1,
#4240
0,
#4250
b11010011 -
b100000 H"
1,
#4260
0,
#4270
b11010100 -
b100000 H"
1,
#4280
0,
#4290
b11010101 -
b100000 H"
1,
#4300
0,
#4310
b11010110 -
b100000 H"
1,
#4320
0,
#4330
b11010111 -
b100000 H"
1,
#4340
0,
#4350
b11011000 -
b100000 H"
1,
#4360
0,
#4370
b11011001 -
b100000 H"
1,
#4380
0,
#4390
b11011010 -
b100000 H"
1,
#4400
0,
#4410
b11011011 -
b100000 H"
1,
#4420
0,
#4430
b11011100 -
b100000 H"
1,
#4440
0,
#4450
b11011101 -
b100000 H"
1,
#4460
0,
#4470
b11011110 -
b100000 H"
1,
#4480
0,
#4490
b11011111 -
b100000 H"
1,
#4500
0,
#4510
b11100000 -
b100000 H"
1,
#4520
0,
#4530
b11100001 -
b100000 H"
1,
#4540
0,
#4550
b11100010 -
b100000 H"
1,
#4560
0,
#4570
b11100011 -
b100000 H"
1,
#4580
0,
#4590
b11100100 -
b100000 H"
1,
#4600
0,
#4610
b11100101 -
b100000 H"
1,
#4620
0,
#4630
b11100110 -
b100000 H"
1,
#4640
0,
#4650
b11100111 -
b100000 H"
1,
#4660
0,
#4670
b11101000 -
b100000 H"
1,
#4680
0,
#4690
b11101001 -
b100000 H"
1,
#4700
0,
#4710
b11101010 -
b100000 H"
1,
#4720
0,
#4730
b11101011 -
b100000 H"
1,
#4740
0,
#4750
b11101100 -
b100000 H"
1,
#4760
0,
#4770
b11101101 -
b100000 H"
1,
#4780
0,
#4790
b11101110 -
b100000 H"
1,
#4800
0,
#4810
b11101111 -
b100000 H"
1,
#4820
0,
#4830
b11110000 -
b100000 H"
1,
#4840
0,
#4850
b11110001 -
b100000 H"
1,
#4860
0,
#4870
b11110010 -
b100000 H"
1,
#4880
0,
#4890
b11110011 -
b100000 H"
1,
#4900
0,
#4910
b11110100 -
b100000 H"
1,
#4920
0,
#4930
b11110101 -
b100000 H"
1,
#4940
0,
#4950
b11110110 -
b100000 H"
1,
#4960
0,
#4970
b11110111 -
b100000 H"
1,
#4980
0,
#4990
b11111000 -
b100000 H"
1,
#5000
0,
#5010
b11111001 -
b100000 H"
1,
#5020
0,
#5030
b11111010 -
b100000 H"
1,
#5040
0,
#5050
b11111011 -
b100000 H"
1,
#5060
0,
#5070
b11111100 -
b100000 H"
1,
#5080
0,
#5090
b11111101 -
b100000 H"
1,
#5100
0,
#5110
b11111110 -
b100000 H"
1,
#5120
0,
#5130
b11111111 -
b100000 H"
1,
#5140
0,
#5150
b100000000 -
b100000 H"
1,
#5160
0,
#5170
b100000001 -
b100000 H"
1,
#5180
0,
#5190
b100000010 -
b100000 H"
1,
#5200
0,
#5210
b100000011 -
b100000 H"
1,
#5220
0,
#5230
b100000100 -
b100000 H"
1,
#5240
0,
#5250
b100000101 -
b100000 H"
1,
#5260
0,
#5270
b100000110 -
b100000 H"
1,
#5280
0,
#5290
b100000111 -
b100000 H"
1,
#5300
0,
#5310
b100001000 -
b100000 H"
1,
#5320
0,
#5330
b100001001 -
b100000 H"
1,
#5340
0,
#5350
b100001010 -
b100000 H"
1,
#5360
0,
#5370
b100001011 -
b100000 H"
1,
#5380
0,
#5390
b100001100 -
b100000 H"
1,
#5400
0,
#5410
b100001101 -
b100000 H"
1,
#5420
0,
#5430
b100001110 -
b100000 H"
1,
#5440
0,
#5450
b100001111 -
b100000 H"
1,
#5460
0,
#5470
b100010000 -
b100000 H"
1,
#5480
0,
#5490
b100010001 -
b100000 H"
1,
#5500
0,
#5510
b100010010 -
b100000 H"
1,
#5520
0,
#5530
b100010011 -
b100000 H"
1,
#5540
0,
#5550
b100010100 -
b100000 H"
1,
#5560
0,
#5570
b100010101 -
b100000 H"
1,
#5580
0,
#5590
b100010110 -
b100000 H"
1,
#5600
0,
#5610
b100010111 -
b100000 H"
1,
#5620
0,
#5630
b100011000 -
b100000 H"
1,
#5640
0,
#5650
b100011001 -
b100000 H"
1,
#5660
0,
#5670
b100011010 -
b100000 H"
1,
#5680
0,
#5690
b100011011 -
b100000 H"
1,
#5700
0,
#5710
b100011100 -
b100000 H"
1,
#5720
0,
#5730
b100011101 -
b100000 H"
1,
#5740
0,
#5750
b100011110 -
b100000 H"
1,
#5760
0,
#5770
b100011111 -
b100000 H"
1,
#5780
0,
#5790
b100100000 -
b100000 H"
1,
#5800
0,
#5810
b100100001 -
b100000 H"
1,
#5820
0,
#5830
b100100010 -
b100000 H"
1,
#5840
0,
#5850
b100100011 -
b100000 H"
1,
#5860
0,
#5870
b100100100 -
b100000 H"
1,
#5880
0,
#5890
b100100101 -
b100000 H"
1,
#5900
0,
#5910
b100100110 -
b100000 H"
1,
#5920
0,
#5930
b100100111 -
b100000 H"
1,
#5940
0,
#5950
b100101000 -
b100000 H"
1,
#5960
0,
#5970
b100101001 -
b100000 H"
1,
#5980
0,
#5990
b100101010 -
b100000 H"
1,
#6000
0,
#6010
b100101011 -
b100000 H"
1,
#6020
0,
#6030
b100101100 -
b100000 H"
1,
#6040
0,
#6050
b100101101 -
b100000 H"
1,
#6060
0,
#6070
b100101110 -
b100000 H"
1,
#6080
0,
#6090
b100101111 -
b100000 H"
1,
#6100
0,
#6110
b100110000 -
b100000 H"
1,
#6120
0,
#6130
b100110001 -
b100000 H"
1,
#6140
0,
#6150
b100110010 -
b100000 H"
1,
#6160
0,
#6170
b100110011 -
b100000 H"
1,
#6180
0,
#6190
b100110100 -
b100000 H"
1,
#6200
0,
#6210
b100110101 -
b100000 H"
1,
#6220
0,
#6230
b100110110 -
b100000 H"
1,
#6240
0,
#6250
b100110111 -
b100000 H"
1,
#6260
0,
#6270
b100111000 -
b100000 H"
1,
#6280
0,
#6290
b100111001 -
b100000 H"
1,
#6300
0,
#6310
b100111010 -
b100000 H"
1,
#6320
0,
#6330
b100111011 -
b100000 H"
1,
#6340
0,
#6350
b100111100 -
b100000 H"
1,
#6360
0,
#6370
b100111101 -
b100000 H"
1,
#6380
0,
#6390
b100111110 -
b100000 H"
1,
#6400
0,
#6410
b100111111 -
b100000 H"
1,
#6420
0,
#6430
b101000000 -
b100000 H"
1,
#6440
0,
#6450
b101000001 -
b100000 H"
1,
#6460
0,
#6470
b101000010 -
b100000 H"
1,
#6480
0,
#6490
b101000011 -
b100000 H"
1,
#6500
0,
#6510
b101000100 -
b100000 H"
1,
#6520
0,
#6530
b101000101 -
b100000 H"
1,
#6540
0,
#6550
b101000110 -
b100000 H"
1,
#6560
0,
#6570
b101000111 -
b100000 H"
1,
#6580
0,
#6590
b101001000 -
b100000 H"
1,
#6600
0,
#6610
b101001001 -
b100000 H"
1,
#6620
0,
#6630
b101001010 -
b100000 H"
1,
#6640
0,
#6650
b101001011 -
b100000 H"
1,
#6660
0,
#6670
b101001100 -
b100000 H"
1,
